<svg width="160" height="200" viewBox="0 0 160 200" fill="none" xmlns="http://www.w3.org/2000/svg">
<path d="M150.878 199.713H8.90821L0.0552673 190.883V67.4183C4.77558 67.4183 8.6049 63.6395 8.6049 58.9815C8.6049 54.3235 4.77558 50.5447 0.0552673 50.5447V9.50193L8.81343 0.859375H119.712C141.873 0.859375 159.844 18.5935 159.844 40.4618V50.5447C155.124 50.5447 151.295 54.3235 151.295 58.9815C151.295 63.6395 155.124 67.4183 159.844 67.4183V190.883L150.878 199.713Z" fill="#6E3A86"/>
<path d="M108.225 32.2869C107.656 29.724 107.107 27.1612 106.538 24.5796C103.903 24.0184 101.268 23.4759 98.6328 22.9147C99.4858 22.6715 100.358 22.5032 101.23 22.3161C102.102 22.129 102.974 21.942 103.846 21.7549C104.737 21.5678 105.609 21.3808 106.519 21.1937C107.088 18.6122 107.656 16.0306 108.225 13.4678C108.244 13.4678 108.263 13.4678 108.263 13.4678L108.282 13.4865C108.851 16.0493 109.4 18.5934 109.969 21.1937C112.604 21.7549 115.239 22.2974 117.893 22.8586C117.893 22.8773 117.893 22.896 117.893 22.896C115.258 23.4572 112.623 23.9997 109.969 24.5609C109.4 27.1425 108.832 29.7053 108.282 32.2682C108.263 32.2869 108.244 32.2869 108.225 32.2869Z" fill="white"/>
<path d="M117.855 69.3823C117.287 66.8195 116.737 64.2566 116.168 61.6751C113.533 61.1139 110.898 60.5714 108.263 60.0102C109.116 59.767 109.988 59.5986 110.86 59.4116C111.732 59.2245 112.604 59.0374 113.476 58.8504C114.367 58.6633 115.239 58.4762 116.149 58.2892C116.718 55.7076 117.287 53.1261 117.855 50.5632C117.874 50.5632 117.893 50.5632 117.893 50.5632L117.912 50.5819C118.481 53.1448 119.031 55.6889 119.599 58.2892C122.234 58.8504 124.869 59.3929 127.523 59.9541C127.523 59.9728 127.523 59.9915 127.523 59.9915C124.888 60.5527 122.253 61.0952 119.599 61.6564C119.031 64.2379 118.462 66.8008 117.912 69.3636C117.893 69.3823 117.874 69.3823 117.855 69.3823Z" fill="white"/>
<path d="M132.604 54.8846C131.675 50.6381 130.727 46.3729 129.798 42.0891C125.419 41.1724 121.04 40.2558 116.68 39.3392C118.102 38.9276 119.561 38.647 121.002 38.3477C122.462 38.0297 123.903 37.7304 125.362 37.4311C126.822 37.1318 128.301 36.8137 129.798 36.4957C130.746 32.2119 131.675 27.928 132.623 23.6628C132.661 23.6628 132.68 23.6628 132.68 23.6815C132.699 23.6815 132.718 23.7003 132.718 23.719C133.646 27.9654 134.594 32.2119 135.523 36.4957C139.902 37.4124 144.281 38.329 148.66 39.2643C148.66 39.2831 148.66 39.3205 148.66 39.3392C144.281 40.2558 139.902 41.1724 135.523 42.1078C134.575 46.3917 133.646 50.6381 132.718 54.9033C132.68 54.8846 132.642 54.8846 132.604 54.8846Z" fill="white"/>
<path d="M66.273 142.863C68.5289 142.863 70.6331 142.246 72.453 141.198L131.58 199.545H140.338L76.8321 136.858C77.8936 135.062 78.5192 132.986 78.5192 130.76C78.5192 124.081 73.0217 118.656 66.254 118.656C59.4863 118.656 53.9888 124.081 53.9888 130.76C53.9888 137.438 59.5053 142.863 66.273 142.863ZM66.273 124.773C69.6094 124.773 72.3392 127.448 72.3392 130.76C72.3392 134.052 69.6284 136.746 66.273 136.746C62.9365 136.746 60.2067 134.071 60.2067 130.76C60.2067 127.467 62.9176 124.773 66.273 124.773Z" fill="#84386B"/>
<path d="M142.708 160.99C140.452 160.99 138.348 161.607 136.528 162.655L66.5574 93.6265L62.1783 97.9477L132.13 166.976C131.068 168.772 130.443 170.848 130.443 173.074C130.443 179.753 135.94 185.178 142.708 185.178C149.476 185.178 154.973 179.753 154.973 173.074C154.954 166.415 149.457 160.99 142.708 160.99ZM142.708 179.061C139.371 179.061 136.642 176.386 136.642 173.074C136.642 169.782 139.352 167.088 142.708 167.088C146.063 167.088 148.774 169.763 148.774 173.074C148.774 176.386 146.044 179.061 142.708 179.061Z" fill="#A55185"/>
<path d="M121.23 164.656L90.4433 134.258L86.0642 138.579L116.85 168.978" fill="#A55185"/>
<path d="M143.921 128.346C141.665 128.346 139.561 128.964 137.741 130.011L86.5762 79.5403L82.1971 83.8616L133.362 134.351C132.301 136.147 131.675 138.224 131.675 140.45C131.675 147.128 137.173 152.553 143.94 152.553C150.708 152.553 156.205 147.128 156.205 140.45C156.168 133.771 150.67 128.346 143.921 128.346ZM143.921 146.436C140.585 146.436 137.855 143.761 137.855 140.45C137.855 137.157 140.566 134.464 143.921 134.464C147.258 134.464 149.988 137.139 149.988 140.45C149.969 143.742 147.258 146.436 143.921 146.436Z" fill="#C2629A"/>
<path d="M23.3732 50.4697C25.6291 50.4697 27.7333 49.8524 29.5532 48.8048L118.348 136.428L122.727 132.106L33.9513 44.4835C35.0129 42.6876 35.6384 40.6112 35.6384 38.3851C35.6384 31.7067 30.1409 26.2817 23.3732 26.2817C16.6056 26.2817 11.108 31.7067 11.108 38.3851C11.108 45.0634 16.6245 50.4697 23.3732 50.4697ZM23.3732 32.3802C26.7097 32.3802 29.4395 35.0552 29.4395 38.3664C29.4395 41.6775 26.7286 44.3525 23.3732 44.3525C20.0178 44.3525 17.307 41.6775 17.307 38.3664C17.307 35.0552 20.0368 32.3802 23.3732 32.3802Z" fill="#C2629A"/>
<path d="M78.6709 72.7685C80.9268 72.7685 83.031 72.1512 84.8509 71.1036L137.779 123.333L142.158 119.012L89.23 66.7823C90.2916 64.9865 90.9172 62.91 90.9172 60.6839C90.9172 54.0055 85.4196 48.5806 78.6519 48.5806C71.8843 48.5806 66.3867 54.0055 66.3867 60.6839C66.3867 67.3622 71.9032 72.7685 78.6709 72.7685ZM78.6709 54.6977C82.0073 54.6977 84.7371 57.3728 84.7371 60.6839C84.7371 63.995 82.0263 66.6701 78.6709 66.6701C75.3344 66.6701 72.6046 63.995 72.6046 60.6839C72.6046 57.3728 75.3344 54.6977 78.6709 54.6977Z" fill="#C2629A"/>
<path d="M86.1962 171.092C83.9403 171.092 81.836 171.709 80.0162 172.756L0.0552673 93.8884V102.512L75.6371 177.096C74.5755 178.892 73.9499 180.969 73.9499 183.195C73.9499 189.873 79.4474 195.298 86.2151 195.298C92.9828 195.298 98.4803 189.873 98.4803 183.195C98.4803 176.517 92.9638 171.092 86.1962 171.092ZM86.1962 189.181C82.8597 189.181 80.1299 186.506 80.1299 183.195C80.1299 179.902 82.8408 177.209 86.1962 177.209C89.5516 177.209 92.2624 179.884 92.2624 183.195C92.2624 186.487 89.5516 189.181 86.1962 189.181Z" fill="#84386B"/>
<path d="M17.3826 160.466C19.6385 160.466 21.7427 159.849 23.5626 158.801L64.8321 199.526H73.5903L27.9417 154.48C29.0033 152.684 29.6289 150.608 29.6289 148.381C29.6289 141.703 24.1313 136.278 17.3637 136.278C10.596 136.278 5.09845 141.703 5.09845 148.381C5.09845 155.06 10.615 160.466 17.3826 160.466ZM17.3826 142.395C20.7191 142.395 23.4489 145.07 23.4489 148.381C23.4489 151.674 20.738 154.368 17.3826 154.368C14.0272 154.368 11.3164 151.693 11.3164 148.381C11.3164 145.07 14.0272 142.395 17.3826 142.395Z" fill="#662A55"/>
<path d="M33.136 151.187L64.036 181.68L68.4151 177.358L37.515 146.866" fill="#84386B"/>
<path d="M21.0036 197.899C23.2595 197.899 25.3637 197.281 27.1836 196.234L30.539 199.545H39.2972L31.5627 191.912C32.6243 190.117 33.2499 188.04 33.2499 185.814C33.2499 179.136 27.7523 173.711 20.9846 173.711C14.217 173.711 8.71942 179.136 8.71942 185.814C8.71942 192.492 14.2549 197.899 21.0036 197.899ZM21.0036 179.809C24.34 179.809 27.0699 182.484 27.0699 185.795C27.0699 189.088 24.359 191.781 21.0036 191.781C17.6482 191.781 14.9373 189.106 14.9373 185.795C14.9373 182.484 17.6672 179.809 21.0036 179.809Z" fill="#662A55"/>
<path d="M56.4153 199.545L40.9653 184.299L36.5862 188.62L47.6572 199.545H56.4153Z" fill="#662A55"/>
<path d="M18.615 95.8337C20.8709 95.8337 22.9751 95.2164 24.795 94.1688L48.4155 117.478L52.7946 113.156L29.1741 89.8475C30.2357 88.0516 30.8613 85.9752 30.8613 83.7491C30.8613 77.0707 25.3637 71.6458 18.5961 71.6458C11.8284 71.6458 6.33084 77.0707 6.33084 83.7491C6.3498 90.4087 11.8473 95.8337 18.615 95.8337ZM18.615 77.7442C21.9515 77.7442 24.6813 80.4193 24.6813 83.7304C24.6813 87.0415 21.9704 89.7166 18.615 89.7166C15.2596 89.7166 12.5488 87.0415 12.5488 83.7304C12.5488 80.4193 15.2596 77.7442 18.615 77.7442Z" fill="#A55185"/>
<path d="M65.1544 92.2236L43.9984 113.119L48.3774 117.44L69.5335 96.5636L65.1544 92.2236Z" fill="#A55185"/>
</svg>
