<svg width="246" height="201" viewBox="0 0 246 201" fill="none" xmlns="http://www.w3.org/2000/svg">
<path d="M14.2935 68.4785C14.2935 68.4785 14.4206 67.8717 14.675 66.8364C14.1481 67.8717 14.2935 68.4785 14.2935 68.4785Z" fill="#F7942A"/>
<path d="M219.85 150.424C226.899 141.268 225.119 127.113 225.119 127.113L215.199 121.259L213.418 76.2073L213.546 75.9395C220.649 72.8159 223.338 69.9244 222.975 67.2827L223.138 67.3184C223.138 67.3184 221.649 56.2698 212.401 41.4906C207.114 33.048 188.255 28.2644 173.048 25.712V25.0873C173.048 25.0873 171.395 21.8387 165.272 20.0538V13.5567C165.272 13.5567 162.293 6.07789 151.882 4.95339L139.473 8.52323L139.8 5.43532L142.453 3.81105L142.78 0.401855L72.3413 6.25638L72.1778 9.023C64.0747 14.7169 60.441 29.6566 60.441 29.6566C50.7028 34.0297 46.724 42.4723 46.724 42.4902L46.1971 30.7811C46.1971 30.7811 26.8478 35.3327 22.0514 45.0783C18.2542 52.7892 15.6016 62.9275 14.6568 66.8365C15.8196 64.5696 20.1982 60.268 36.4407 55.8057C36.4407 55.8057 36.586 41.9012 44.0895 32.9766C41.437 36.2251 37.1129 43.347 36.4407 55.8057C-3.91118 67.0328 23.6683 77.1533 24.3587 77.4032L23.3776 122.722L13.9483 127.756C10.3146 142.213 22.4692 157.403 22.4692 157.403L32.371 156.475L0.776245 159.438V198.867L50.9208 200.402H151.047L245.776 199.991V150.424H219.85ZM156.897 150.424C157.405 149.692 157.86 148.907 158.278 148.068C157.841 149.032 157.424 149.799 157.006 150.424H156.897ZM35.6049 64.6053L43.0903 75.3862V75.4398L35.2416 77.5281L35.2961 64.7124C35.3869 64.6767 35.4959 64.641 35.6049 64.6053ZM35.2416 79.1345L42.2545 77.2782L35.2234 89.4514L35.2416 79.1345ZM44.1804 141.25L44.2712 138.34H44.3802L44.1804 141.25ZM35.7866 91.629L43.0176 79.1345L42.7451 91.4148L35.8956 91.8253L35.7866 91.629ZM42.4544 103.731L36.7314 93.3425L42.7088 92.9855L42.4544 103.731ZM35.2052 93.8601L41.9093 106.015L35.1689 107.461L35.2052 93.8601ZM41.0009 107.818L35.1326 117.064L35.1507 109.05L41.0009 107.818ZM35.1326 120.045L42.3454 108.657L42.0729 120.902L35.1326 121.58V120.045ZM163.892 57.4121L163.91 58.8222L162.838 57.3229C163.183 57.3407 163.546 57.3764 163.892 57.4121ZM167.362 57.7334L167.453 63.7843L165.454 60.9641L165.436 60.2323L167.216 57.6977C167.253 57.7155 167.307 57.7334 167.362 57.7334ZM172.013 58.2153L174.211 59.0007L174.883 71.3345L172.739 71.2631L168.942 65.9262L168.833 57.894C169.923 57.9833 170.995 58.1082 172.013 58.2153ZM166.453 118.563L166.417 116.564L168.197 118.474V118.653L166.453 118.563ZM164.854 112.709L158.35 105.694L158.623 105.301L164.727 105.355L164.854 112.709ZM168.997 68.5143L170.904 71.1917L169.033 71.1203L168.997 68.5143ZM194.378 83.4183L194.723 93.0926L187.529 81.6513L193.215 78.135L194.378 83.4183ZM200.9 93.6102L205.515 94.1278L205.642 99.9288L201.227 101.696L200.9 93.6102ZM165.854 84.1859L167.761 86.7918L167.78 87.6664L165.908 87.6307L165.854 84.1859ZM166.035 94.6098L167.834 92.0038L167.998 103.927L166.199 103.909L166.035 94.6098ZM169.288 89.8976L169.651 89.38L176.391 98.5901L176.628 103.035L176.191 104.016L169.487 103.945L169.288 89.8976ZM167.798 89.4514L165.981 92.0573L165.926 89.1122L167.78 89.1479L167.798 89.4514ZM164.709 103.891L159.64 103.838L164.582 96.6981L164.709 103.891ZM175.792 87.8092L170.777 87.72L175.41 81.0087L175.792 87.8092ZM158.078 87.5058L157.878 73.2979L164.309 82.0975L164.4 87.6129L158.078 87.5058ZM164.437 89.0944L164.527 94.1814L158.278 103.213L158.078 88.9873L164.437 89.0944ZM171.341 89.2015L175.864 89.2729L176.228 95.8771L171.341 89.2015ZM175.065 74.4938L173.83 72.7445L174.974 72.7802L175.065 74.4938ZM175.21 77.2604L175.283 78.6169L169.596 86.8275L169.233 86.3099L169.051 72.5839L171.958 72.691L175.21 77.2604ZM167.725 84.2394L165.799 81.6156L165.636 72.4589L167.562 72.5303L167.725 84.2394ZM164.273 79.5451L158.932 72.2448L164.146 72.4232L164.273 79.5451ZM194.578 101.25L194.996 100.375L195.05 101.964L194.578 101.25ZM192.034 103.16L183.677 103.856L183.005 86.5955L192.87 101.375L192.034 103.16ZM193.742 103.035L193.833 102.82L193.96 103.017L193.742 103.035ZM194.832 96.0377L194.869 97.1265L193.615 99.8039L183.259 84.2751L186.275 82.4009L194.832 96.0377ZM182.877 82.7936L182.641 76.6178L185.494 81.1693L182.877 82.7936ZM168.016 105.391L168.161 116.261L166.381 114.333L166.217 105.373L168.016 105.391ZM169.669 117.903L169.506 105.409L175.537 105.462L169.851 118.081L169.669 117.903ZM200.828 92.1287L199.719 64.4625L205.297 84.8641L205.479 92.6285L200.828 92.1287ZM192.888 76.6L186.747 80.4018L182.514 73.6727L182.496 73.3871L185.403 67.1221L192.561 75.2077L192.888 76.6ZM182.387 70.1386L182.133 63.4094L184.349 65.9083L182.387 70.1386ZM165.49 63.5879L167.489 66.3902L167.562 71.0846L165.636 71.0132L165.49 63.5879ZM158.059 70.7454L163.964 62.3206L164.11 70.9596L158.059 70.7454ZM163.365 60.6071L157.823 68.5143L157.66 56.9302L150.647 56.4482H150.683C154.299 56.6624 157.696 56.8945 160.912 57.1444L163.365 60.6071ZM158.496 118.117L158.35 107.854L164.891 114.922L164.945 118.474L158.496 118.117ZM176.809 106.247L177.518 119.152L184.295 119.474L183.749 105.301L191.326 104.677L184.349 119.545L171.141 118.813L176.809 106.247ZM189.6 119.848L186.039 119.42L193.015 104.57L194.887 104.409L195.141 104.784L195.232 107.176L190.435 119.902L189.6 119.848ZM189.454 60.8391L191.943 72.2448L186.093 65.6584L188.419 60.6428C188.764 60.7142 189.109 60.7677 189.454 60.8391ZM185.021 64.4447L182.024 61.0712L181.969 59.5362C183.713 59.8039 185.348 60.0895 186.911 60.3751L185.021 64.4447ZM165.381 57.7334V57.5549C165.418 57.5549 165.472 57.5549 165.508 57.5727L165.381 57.7334ZM63.4388 41.919C65.0195 35.4933 66.8545 30.3885 68.7258 26.3367C66.6909 30.8882 64.9286 36.1716 63.4388 41.919ZM47.1055 61.8744L46.3242 61.9993C46.6513 61.9458 46.9056 61.9101 47.1055 61.8744ZM43.163 72.691L37.2037 64.1055C39.4566 63.4273 41.6368 62.9275 43.3991 62.5527L43.163 72.691ZM41.7277 152.37C40.6921 150.924 39.7837 149.425 39.0024 147.925C39.9835 149.782 40.9464 151.227 41.7458 152.298L41.7277 152.37ZM191.98 119.973L195.359 111.013L195.686 121.919L201.972 122.24L201.282 103.195L205.66 101.464L206.097 120.759L191.98 119.973ZM79.7721 11.9503C78.9364 12.4143 78.137 12.9855 77.3376 13.6459C78.4277 12.6464 79.0999 12.2537 79.0999 12.2537C79.3361 12.1466 79.5541 12.0574 79.7721 11.9503ZM60.4047 56.4839L47.3598 57.9119L60.4047 56.4839ZM44.5619 32.4233C44.4711 32.5304 44.3802 32.6196 44.2894 32.7267C44.3802 32.6375 44.4711 32.5304 44.5619 32.4233ZM34.9327 135.716C33.8971 130.094 34.1333 125.989 34.1333 125.989C34.097 129.594 34.4058 132.825 34.9327 135.716ZM38.6027 147.122C38.53 146.979 38.4755 146.854 38.4029 146.711C38.4755 146.836 38.5482 146.979 38.6027 147.122ZM35.3869 137.894C35.2416 137.305 35.1144 136.716 35.0054 136.145C35.1144 136.752 35.2416 137.323 35.3869 137.894Z" fill="#F7942A"/>
<path d="M185.276 117.278V120.063L125.12 116.6V114.904C125.12 114.904 125.756 114.797 126.029 114.708C126.301 114.601 126.737 114.69 126.901 114.654C127.046 114.636 127.282 114.636 127.41 114.476C127.537 114.333 127.391 114.279 127.682 114.083C127.991 113.887 128.518 113.762 128.518 113.762C128.518 113.762 129.045 113.565 129.717 113.583C130.389 113.601 131.352 113.565 131.352 113.565C131.352 113.565 132.006 113.012 132.133 112.887C132.261 112.762 132.279 112.512 132.588 112.512C132.896 112.512 133.151 112.459 133.151 112.459V111.316H133.024V111.031L135.004 110.888L136.294 110.87V111.602L136.694 111.584V110.71L139.164 110.353L139.891 110.37L140.999 110.388V109.085V108.621H140.854V108.318C140.854 108.318 140.491 107.961 140.491 107.247C140.491 107.247 140.727 107.086 140.454 106.89C140.454 106.89 140.345 105.569 141.018 105.462C141.018 105.462 141.217 103.534 143.434 102.499V102.303C143.434 102.303 145.196 101.91 146.432 102.178C146.432 102.178 150.538 102.981 150.883 106.39L150.901 107.782H150.665C150.665 107.782 150.647 108.211 150.52 108.407V108.71H150.302V110.531L151.337 110.692V111.959H152.972C152.972 111.959 153.445 111.87 154.099 111.995C154.753 112.12 155.062 111.977 155.425 111.995C155.789 112.013 155.898 111.905 156.152 112.03C156.406 112.155 156.679 112.37 156.679 112.37C156.679 112.37 158.169 112.352 158.568 112.387C158.968 112.423 159.077 112.28 159.477 112.512C159.876 112.744 160.312 112.976 160.549 113.048C160.785 113.119 160.621 113.101 161.275 113.173C161.929 113.244 162.111 112.994 162.547 113.155C165.218 114.154 168.924 114.511 169.324 114.583C169.724 114.654 172.285 114.94 172.921 115.118C173.557 115.297 177.463 116.403 177.645 116.421L185.276 117.278Z" fill="#FFC535"/>
<path d="M24.0318 140.678L181.824 140.036L223.738 142.624C223.738 142.624 221.158 151.174 223.738 142.624C226.318 134.074 225.119 127.113 225.119 127.113L222.048 125.31C222.048 125.31 220.595 124.864 219.796 124.846C218.996 124.828 219.251 124.686 218.433 124.186C217.615 123.686 216.671 123.543 215.962 123.24C215.254 122.936 215.453 122.99 214.599 122.597C213.746 122.205 213.945 122.454 213.491 122.24C213.037 122.044 211.529 121.794 210.73 121.348C209.93 120.902 210.076 121.294 209.076 120.812C208.077 120.33 207.514 120.42 206.86 120.473C206.206 120.527 206.097 119.902 206.097 119.902L206.115 120.777L201.918 120.545L195.65 120.188L191.998 119.991L190.436 119.902L186.057 119.42L185.294 119.135H184.113C182.968 119.135 180.77 119.545 179.171 118.992C177.591 118.421 175.756 119.652 174.32 119.206C172.885 118.76 172.885 118.867 170.578 118.528C168.27 118.189 167.98 118.76 166.399 118.635C164.818 118.51 163.238 118.742 162.22 118.635C161.203 118.528 159.913 117.278 158.768 116.939C157.624 116.6 157.333 116.493 156.461 116.6C155.589 116.707 154.008 116.832 152.282 116.832C150.556 116.832 149.829 116.725 148.539 116.725C147.249 116.725 146.668 116.725 145.233 116.386C143.797 116.047 141.926 115.707 139.909 115.368C137.893 115.029 138.765 115.136 136.748 115.029C134.731 114.922 134.586 114.458 132.569 114.244C130.553 114.03 131.279 114.137 128.827 113.566C126.374 112.994 127.101 113.119 126.229 113.119C125.357 113.119 123.34 113.012 121.469 112.78C119.597 112.548 119.888 112.334 118.58 111.995C117.272 111.656 114.546 112.78 113.547 112.905C112.548 113.012 111.531 113.691 110.386 114.03C109.241 114.369 108.66 114.601 107.37 115.047C106.08 115.493 105.935 115.386 105.063 115.618C104.191 115.85 98.2858 117.885 96.9958 118.117C95.7059 118.349 94.3978 118.563 92.2357 119.027C90.0737 119.474 90.8004 119.027 89.6377 118.92C88.4931 118.813 85.459 118.474 83.733 118.474C82.007 118.474 81.4256 117.796 79.8449 117.796C78.2643 117.796 77.5376 118.028 76.1023 118.028C74.667 118.028 74.3763 118.028 72.3596 117.582C70.3429 117.135 70.0522 116.564 68.0355 116.564C66.0188 116.564 65.8735 115.547 65.4375 115.315C65.0014 115.083 62.1308 114.744 60.9681 114.297C59.8234 113.851 59.5328 114.405 58.5153 114.637C57.4979 114.869 56.7893 115.083 55.7719 115.422C54.7726 115.761 54.482 115.993 53.4645 116.332C52.4653 116.671 51.4478 117.01 48.7044 117.35C45.961 117.689 46.1064 117.921 44.9617 118.26C43.8171 118.599 41.8005 119.956 40.4923 120.295C39.2024 120.634 36.895 121.651 35.5869 122.222C34.2969 122.794 31.4082 124.043 29.1008 125.275C26.7934 126.506 24.0318 126.417 24.0318 126.417C24.0318 126.417 21.5973 126.56 20.3982 127.167C19.1991 127.774 19.4171 128.273 18.1998 128.577C16.9825 128.88 13.5669 129.683 13.5669 129.683L13.2762 133.664L24.0318 140.678Z" fill="#FFC535"/>
<path d="M223.756 142.624C223.756 142.624 110.695 129.933 106.425 129.933C102.156 129.933 50.9209 130.058 50.9209 130.058L51.4478 126.559C51.4478 126.559 57.0436 123.9 58.7878 123.186C60.5138 122.454 62.9302 121.49 63.457 121.258C63.9839 121.026 65.8553 120.419 67.7266 119.562C69.5979 118.724 70.5245 118.117 71.869 117.76C73.1953 117.403 73.0681 116.671 74.9394 117.028C76.8108 117.385 77.2105 117.028 78.9365 117.867C80.6625 118.706 82.9335 119.313 84.932 120.044C86.9305 120.776 88.0025 121.615 89.6013 121.847C91.2001 122.097 92.7989 122.686 94.5976 123.061C96.3962 123.436 99.3395 123.793 99.3395 123.793C99.3395 123.793 104.136 123.918 104.808 123.918C105.48 123.918 106.807 124.168 107.806 123.132C108.805 122.115 110.15 121.508 111.349 121.258C112.548 121.008 114.292 119.562 116.018 119.205C117.744 118.848 118.961 118.242 120.814 117.885C122.686 117.528 124.157 117.046 126.283 116.314C128.427 115.582 128.554 115.475 130.553 115.35C132.551 115.225 134.295 115.1 135.894 115.225C137.493 115.35 138.038 115.707 140.164 115.957C142.308 116.207 143.507 115.957 144.161 116.207C144.815 116.457 145.233 116.689 146.032 116.939C146.832 117.189 147.104 117.778 148.303 118.509C149.502 119.241 148.176 119.473 150.574 119.723C152.972 119.973 154.044 120.205 155.77 120.812C157.496 121.419 157.496 121.419 158.841 122.026C160.167 122.632 159.64 123.471 162.311 123.953C164.982 124.435 164.037 124.56 167.507 125.524C167.507 125.524 170.087 126.559 171.849 126.042C173.612 125.524 175.574 125.667 177.227 126.042C178.88 126.417 180.788 125.649 181.806 126.327C182.823 127.006 185.694 127.595 186.893 127.737C188.11 127.88 187.547 128.666 189.037 128.951C190.526 129.237 192.543 131.111 192.543 131.111C192.543 131.111 192.87 130.647 195.014 130.682C197.176 130.718 200.265 132.2 202.572 132.646C204.879 133.092 201.718 131.896 206.097 133.396C210.475 134.895 210.621 135.787 211.529 135.769C212.437 135.769 214.545 136.912 215.599 137.072C216.652 137.233 216.961 137.305 218.469 138.393C219.977 139.482 224.247 140.749 224.247 140.749C224.247 140.749 223.865 142.142 223.756 142.624Z" fill="#E2A125"/>
<path d="M0.776306 175.627L245.776 166.113V150.424H219.85C219.85 150.424 222.721 147.086 223.738 142.624C223.738 142.624 221.612 141.339 220.54 141.035C219.468 140.732 220.849 141.249 218.778 140.678C216.707 140.107 216.162 140.839 214.654 140.143C213.146 139.447 214.345 139.946 213.146 139.447C211.929 138.947 212.092 139.108 210.475 138.358C208.858 137.608 208.767 137.608 207.714 136.823C206.66 136.038 207.259 135.877 205.642 135.681C204.025 135.484 203.426 135.484 203.081 135.145C202.735 134.806 201.972 134.842 201.209 134.199C200.446 133.556 199.792 133.11 199.302 132.914C198.793 132.718 198.593 132.378 197.994 132.45C197.394 132.521 194.36 131.486 192.561 131.04C190.744 130.594 190.145 130.647 189.545 130.594C188.946 130.54 187.892 130.736 187.583 130.54C187.274 130.344 187.038 129.951 185.566 129.755C184.113 129.558 181.824 129.041 181.824 129.041L180.843 128.612C180.043 128.666 179.062 128.612 178.608 128.719C178.154 128.826 177.863 129.183 177.118 129.023C176.373 128.862 176.083 128.755 175.574 128.719C175.065 128.684 174.32 128.505 174.139 128.505C173.975 128.505 173.793 128.505 173.339 128.666C172.885 128.826 170.868 129.291 170.196 129.291C169.506 129.291 166.926 129.701 166.362 129.915C165.799 130.129 165.727 130.129 164.764 130.272C163.783 130.433 163.383 130.326 163.383 130.326C163.383 130.326 161.948 129.755 161.203 129.648C160.458 129.54 159.077 129.237 158.623 129.13C158.169 129.023 157.587 128.719 157.024 128.505C156.443 128.291 156.17 128.237 155.48 128.148C154.789 128.041 154.044 127.988 153.427 128.041C152.791 128.095 151.083 128.309 150.738 128.398C150.393 128.505 149.139 128.755 148.794 128.862C148.448 128.969 147.994 129.166 147.486 129.219C146.977 129.273 146.177 129.326 145.941 129.38C145.705 129.433 144.506 129.112 143.888 129.076C143.252 129.023 142.053 129.076 142.053 129.076L141.018 129.023C141.018 129.023 139.764 128.969 139.528 129.291C139.292 129.594 138.946 129.915 138.547 130.076C138.147 130.237 137.802 130.433 137.802 130.433C137.802 130.433 135.058 129.291 133.514 128.88C131.97 128.469 131.516 127.845 130.535 127.898C129.553 127.952 128.191 127.898 127.337 127.791C126.483 127.684 125.393 127.577 124.866 127.523C124.357 127.47 124.285 127.166 123.14 127.256C121.995 127.363 121.087 127.416 119.706 127.363C118.325 127.309 118.162 127.256 117.417 127.202C116.672 127.149 116.163 127.095 115.764 127.149C115.364 127.202 111.876 126.988 110.495 126.988C109.114 126.988 107.116 127.095 106.08 127.149C105.044 127.202 104.081 127.506 103.282 127.452C102.483 127.399 100.757 127.238 99.8482 127.184C98.9398 127.131 98.3039 127.184 97.3773 127.024C96.4507 126.863 95.8875 126.613 95.0881 126.56C94.2887 126.506 93.998 126.399 93.1986 126.453C92.3992 126.506 91.5453 126.149 91.0729 126.292C90.6187 126.453 90.7277 126.506 90.1645 126.595C89.5831 126.702 89.1834 126.595 88.6202 126.702C88.0388 126.809 87.4211 126.97 87.0214 127.059C86.6217 127.166 86.222 127.47 85.0229 127.274C83.8237 127.059 81.6435 127.166 80.6625 127.166C79.6814 127.166 78.028 127.577 77.3376 127.791C76.6473 128.005 75.7388 128.255 75.2846 128.416C74.8304 128.577 74.4307 128.826 74.4307 128.826C74.4307 128.826 72.4322 128.719 71.5056 128.773C70.5972 128.826 69.3254 128.666 68.5805 128.934C67.8356 129.201 67.9991 129.094 67.1452 129.291C66.2913 129.505 65.2012 129.808 64.747 129.558C64.2928 129.308 62.5123 128.826 62.0581 128.63C61.6039 128.434 60.6228 128.273 59.3692 127.702C58.1156 127.131 57.3707 126.881 55.8809 126.399C54.391 125.917 52.7377 125.524 52.2654 125.364C51.8111 125.203 50.9572 124.846 50.4849 124.793C50.0125 124.739 49.5764 124.793 49.1041 124.953C48.6499 125.114 47.6688 125.471 47.2146 125.578C46.7603 125.685 44.5256 126.31 44.235 126.31C43.9443 126.31 42.1819 127.184 41.546 127.184C40.9101 127.184 40.5649 127.238 39.711 127.238C38.8571 127.238 35.9865 127.238 34.5512 127.184C33.0978 127.184 31.8987 127.131 31.3899 127.131C30.8812 127.131 29.8456 126.97 28.9917 126.97C28.1378 126.97 26.9387 127.024 26.4118 127.131C25.9031 127.238 25.2127 127.488 24.5223 127.702L24.0318 128.023C24.0318 128.023 23.9954 128.469 22.1786 128.898C20.3618 129.326 20.7615 128.934 19.7622 129.612C18.763 130.308 17.6547 131.04 16.7463 131.664C15.8379 132.289 13.2761 133.664 13.2761 133.664C13.2761 133.664 13.1308 140.25 16.8008 147.907L22.4693 157.421L0.776306 159.438V175.627Z" fill="#B47A2B"/>
<path d="M25.2854 127.47C25.2854 127.47 34.206 124.257 35.6959 124.079C37.1675 123.9 39.7111 122.883 40.5105 122.794C41.3099 122.704 42.0548 122.704 42.509 122.758C42.9632 122.811 43.9261 122.901 43.9261 122.901V122.169C43.9261 122.169 43.8353 121.241 44.78 121.241H44.9617C44.9617 121.241 45.7974 121.169 45.7974 122.097V122.954C45.7974 122.954 55.0633 122.794 55.245 122.865V120.812L55.8809 120.473C55.8809 120.473 55.8445 118.795 56.971 118.421C56.971 118.421 57.1345 118.064 57.4433 117.956H58.3699V116.885L61.0407 116.618V116.261L63.239 116.172C63.239 116.172 64.5108 116.225 64.7833 116.975C64.7833 116.975 66.2005 117.475 66.2005 120.384V121.116H66.5638V121.919L66.2186 122.044V123.4C66.2186 123.4 68.3625 124.668 68.9621 124.864C69.5616 125.06 71.5965 124.935 71.5965 124.935L79.5542 124.632C79.5542 124.632 79.1 124.221 78.882 123.722H78.6276V120.973H78.9001C78.9001 120.973 79.1908 117.546 82.8063 115.315V114.833L85.4952 114.619L89.7103 114.815C89.7103 114.815 93.8527 116.511 93.8527 119.759C93.8527 119.759 94.5431 120.652 94.0344 121.491V121.848C94.0344 121.848 94.5249 123.24 93.7255 123.74V127.006V129.201C93.7255 129.201 97.0503 129.88 98.5583 130.29C100.066 130.701 103.191 131.504 103.555 131.54C103.918 131.575 106.916 131.986 106.916 131.986V135.681L31.8442 135.823L25.2854 127.47Z" fill="#B47A2B"/>
<path d="M24.0327 143.891C23.9233 143.909 23.8504 143.927 23.7593 143.945C23.9051 143.927 24.0327 143.891 24.0327 143.891Z" fill="#885A24"/>
<path d="M23.7593 143.945C23.614 143.98 23.4686 143.998 23.4141 144.016C23.4686 144.016 23.5958 143.98 23.7593 143.945Z" fill="#885A24"/>
<path d="M0.776306 173.503H197.049L199.501 173.824V173.503" fill="#885A24"/>
<path d="M233.022 162.222C224.556 158.063 228.189 160.437 219.123 158.063C210.057 155.689 214.89 156.582 210.057 155.386C205.225 154.19 202.59 152.352 202.59 152.352L190.635 149.96L181.824 146.551L179.952 145.908C177.863 144.73 176.555 144.409 173.702 144.23C170.868 144.07 169.724 143.57 168.397 143.391C167.071 143.231 165 143.052 163.292 143.052C161.584 143.052 159.695 142.891 158.568 142.891C157.442 142.891 156.479 142.731 153.645 142.552C150.81 142.374 152.518 142.552 149.666 142.552C146.813 142.552 143.416 140.053 141.526 139.714C139.637 139.375 138.492 139.054 135.095 138.376C131.697 137.715 133.205 137.715 131.497 136.876C129.79 136.037 128.663 135.877 126.774 134.699C124.884 133.521 125.266 134.36 122.795 134.538C120.342 134.699 119.579 134.877 118.071 134.699C116.563 134.538 115.618 134.199 112.766 134.199C109.913 134.199 109.55 133.86 108.224 133.539C106.898 133.217 105.008 132.878 103.682 132.36C102.355 131.843 100.466 131.861 98.0132 131.7C95.5605 131.539 94.6157 131.7 92.5264 132.36C90.437 133.021 88.5475 134.038 86.2765 134.859C84.0054 135.68 82.879 136.037 81.1712 136.698C79.4633 137.358 77.7737 137.037 77.0106 137.537C76.2475 138.037 74.358 138.715 72.8501 139.215C71.3421 139.714 67.7448 138.715 66.6002 138.715C65.4556 138.715 65.0922 138.376 63.566 138.215C62.0581 138.054 60.9135 138.875 59.5872 139.215C58.2609 139.554 57.3161 140.053 55.9899 140.553C54.6636 141.053 50.8846 142.392 47.4689 143.391C44.0714 144.391 42.9268 143.891 41.219 144.391C39.5112 144.891 33.6428 145.23 31.7533 145.23C29.8638 145.23 29.3006 144.73 27.7744 144.23C27.7744 144.23 25.4307 143.57 23.9773 143.873L19.8167 144.926C19.8167 144.926 18.3632 145.765 16.0922 146.408C16.0922 146.408 18.8901 152.958 22.4148 157.403L0.776306 159.438V170.576L228.189 168.398L233.022 162.222Z" fill="#885A24"/>
<path d="M245.776 200.402H199.501H97.2138H28.5193L0.776306 198.867V163.65C2.82933 163.347 4.31913 164.168 5.46374 163.65C6.60834 163.133 7.40775 162.722 8.66136 162.722C9.91498 162.722 13.4941 162.829 15.093 163.347C16.6918 163.865 16.4737 163.347 18.5268 164.079C20.5798 164.811 21.7244 164.9 22.76 165.007C23.7956 165.114 106.371 160.688 109.568 161.241C112.784 161.794 120.106 161.384 122.086 161.241C124.067 161.098 126.665 159.991 127.282 159.866C127.9 159.724 129.499 159.099 131.098 158.903C132.697 158.688 134.386 158.76 135.603 158.563C136.821 158.349 137.366 157.742 138.583 157.742C139.8 157.742 141.254 157.742 142.18 157.885C143.089 158.028 144.742 157.778 145.778 157.368C146.813 156.957 148.866 156.547 149.902 156.547C150.938 156.547 153.336 156.136 154.589 156.136C155.843 156.136 157.987 157.207 159.277 157.207C160.567 157.207 160.658 157.421 162.329 157.421C164.001 157.421 164.309 157.35 165.527 157.421C166.744 157.493 168.197 157.689 169.342 157.832C170.487 157.974 171.014 157.689 171.94 158.099C172.849 158.51 173.085 158.653 174.466 158.581C175.846 158.51 177.209 158.439 178.208 158.439C179.207 158.439 180.57 158.224 182.405 158.439C184.24 158.653 185.603 158.51 187.056 158.706C188.51 158.92 190.108 159.474 190.563 159.474C191.017 159.474 190.708 159.26 192.016 158.706C193.306 158.153 195.068 158.01 195.686 158.01L199.501 158.563C199.501 158.563 205.842 161.169 207.041 160.384C208.259 159.581 208.858 159.706 212.783 160.384C216.707 161.062 233.022 162.258 233.022 162.258C233.022 162.258 242.306 166.613 245.776 166.132" fill="#5A3B14"/>
<path d="M121.837 40.5161C121.292 38.0707 120.765 35.6254 120.22 33.1622C117.695 32.6267 115.169 32.1091 112.644 31.5736C113.461 31.3416 114.297 31.181 115.133 31.0025C115.969 30.824 116.804 30.6455 117.64 30.467C118.494 30.2885 119.33 30.11 120.202 29.9315C120.747 27.4683 121.292 25.0052 121.837 22.5598C121.855 22.5598 121.873 22.5598 121.873 22.5598L121.892 22.5777C122.437 25.023 122.964 27.4505 123.509 29.9315C126.034 30.467 128.559 30.9846 131.103 31.5201C131.103 31.5379 131.103 31.5558 131.103 31.5558C128.578 32.0913 126.052 32.6089 123.509 33.1444C122.964 35.6076 122.418 38.0529 121.892 40.4982C121.873 40.5161 121.855 40.5161 121.837 40.5161Z" fill="white"/>
<path d="M131.067 75.9109C130.522 73.4655 129.995 71.0202 129.45 68.557C126.924 68.0215 124.399 67.5039 121.873 66.9684C122.691 66.7364 123.527 66.5757 124.362 66.3972C125.198 66.2188 126.034 66.0403 126.87 65.8618C127.724 65.6833 128.559 65.5048 129.431 65.3263C129.976 62.8631 130.522 60.3999 131.067 57.9546C131.085 57.9546 131.103 57.9546 131.103 57.9546L131.121 57.9724C131.666 60.4178 132.193 62.8453 132.738 65.3263C135.263 65.8618 137.789 66.3794 140.332 66.9149C140.332 66.9327 140.332 66.9506 140.332 66.9506C137.807 67.486 135.282 68.0037 132.738 68.5391C132.193 71.0023 131.648 73.4477 131.121 75.893C131.103 75.9109 131.085 75.9109 131.067 75.9109Z" fill="white"/>
<path d="M145.202 62.0776C144.311 58.0259 143.403 53.9562 142.513 49.8688C138.316 48.9942 134.119 48.1196 129.94 47.245C131.303 46.8523 132.702 46.5845 134.083 46.299C135.481 45.9955 136.862 45.7099 138.261 45.4243C139.66 45.1388 141.077 44.8353 142.513 44.5319C143.421 40.4444 144.311 36.357 145.22 32.2874C145.256 32.2874 145.274 32.2874 145.274 32.3052C145.292 32.3052 145.311 32.3231 145.311 32.3409C146.201 36.3927 147.109 40.4444 147.999 44.5319C152.196 45.4065 156.393 46.2811 160.59 47.1736C160.59 47.1914 160.59 47.2271 160.59 47.245C156.393 48.1196 152.196 48.9942 147.999 49.8866C147.091 53.9741 146.201 58.0259 145.311 62.0955C145.274 62.0776 145.238 62.0776 145.202 62.0776Z" fill="white"/>
</svg>
