<svg width="48" height="49" viewBox="0 0 48 49" fill="none" xmlns="http://www.w3.org/2000/svg">
<path d="M47.5558 24.6456C47.5558 24.6456 47.5847 24.6456 47.5558 24.6456C47.5558 21.3238 47.5558 18.0021 47.5558 14.6515C47.5558 13.9294 47.5269 13.2072 47.4114 12.4851C46.4871 5.87056 40.8258 0.931295 34.1245 0.931295C27.2789 0.931295 20.4333 0.90241 13.5876 0.931295C12.6056 0.931295 11.5945 1.04683 10.6124 1.24903C4.40225 2.66437 0.127319 8.06581 0.127319 14.4493C0.127319 21.2372 0.127319 28.0251 0.127319 34.813C0.127319 35.5639 0.185081 36.286 0.30062 37.037C1.2827 43.4494 6.97295 48.3309 13.472 48.3309C20.3465 48.3309 27.2211 48.3309 34.0956 48.3309C34.7889 48.3309 35.4822 48.2732 36.1465 48.1576C42.6166 47.1755 47.4693 41.5719 47.527 35.0151C47.5848 31.5779 47.5558 28.1117 47.5558 24.6456ZM42.9921 34.9573C42.9632 39.81 39.035 43.7383 34.1535 43.7672C27.2789 43.796 20.4043 43.796 13.5298 43.7672C8.61943 43.7383 4.69113 39.7811 4.69113 34.8707C4.69113 31.4623 4.69113 28.0251 4.69113 24.6167C4.69113 21.2083 4.69113 17.7999 4.69113 14.3915C4.69113 10.2899 7.43519 6.76598 11.3924 5.75502C12.0856 5.58171 12.8366 5.49507 13.5587 5.49507C20.4044 5.46618 27.25 5.46618 34.0956 5.49507C38.9771 5.49507 42.9632 9.42338 42.9632 14.3049C43.021 21.2083 43.021 28.0828 42.9921 34.9573Z" fill="white"/>
<path d="M11.5076 24.6454C11.5076 17.8287 17.0246 12.3117 23.8413 12.2828C30.6581 12.2539 36.2039 17.8287 36.2039 24.6454C36.2039 31.4622 30.6581 36.9792 23.8413 36.9792C17.0535 36.9792 11.5076 31.4622 11.5076 24.6454ZM23.8703 16.8466C19.5665 16.8466 16.0714 20.3705 16.0714 24.6743C16.1003 28.9781 19.5665 32.4443 23.8703 32.4443C28.1741 32.4443 31.669 28.9492 31.669 24.6454C31.669 20.3416 28.1452 16.8466 23.8703 16.8466Z" fill="white"/>
<path d="M36.0307 9.04785C37.6194 9.04785 38.8615 10.3188 38.8615 11.8785C38.8615 13.4383 37.5905 14.7092 36.0307 14.7092C34.4709 14.7092 33.2001 13.4383 33.2001 11.8785C33.2001 10.3188 34.4709 9.04785 36.0307 9.04785Z" fill="white"/>
</svg>
