<svg width="121" height="201" viewBox="0 0 121 201" fill="none" xmlns="http://www.w3.org/2000/svg">
<g clip-path="url(#clip0)">
<path d="M117.62 90.4076V79.2341V75.2138L118.58 71.8636L117.874 70.94L118.779 66.7386L118.037 65.8332L118.779 62.1389L117.819 60.8712C117.819 26.572 90.7442 12.32 90.7442 12.32L90.4907 9.60355L87.3576 8.78863L83.3371 8.46266C80.874 7.14067 79.389 6.57928 79.389 6.57928L79.4614 3.79044L70.0078 0.947266H53.9075L44.8342 2.90308V6.74227H39.7995V8.28156L37.7168 9.49489V8.26345H33.7144V11.342C2.96278 28.2743 5.37147 60.8531 5.37147 60.8531L3.95886 61.9578L4.66516 65.7788L3.75964 67.3906L4.75572 70.5054L3.75964 72.3163L4.66516 75.0327L4.77383 88.1258C2.63679 87.9447 0.825745 89.4116 0.825745 89.4116V94.3373H4.93682V96.4742L7.12819 126.717L2.74545 192.87L40.8499 196.927H76.2015L115.085 193.033L113.038 126.989L116.171 97.3254H117.493V94.935H120.862V90.4076H117.62ZM10.7684 62.2837L11.529 65.2899H9.01168L8.34159 62.2837H10.7684ZM10.5873 67.0827L11.3298 70.0889H8.83057L8.16049 67.0827H10.5873ZM7.3274 62.2837L8.06993 65.308H6.18644L5.51636 62.3018H7.3274V62.2837ZM7.1463 67.0827L7.90694 70.0889H6.02345L5.35336 67.0827H7.1463ZM6.40377 74.8154L5.71557 71.8093H7.52662L8.28726 74.8154H6.40377ZM9.21089 74.8154L8.54081 71.8093H10.9676L11.7282 74.8154H9.21089ZM118.037 67.0827L117.367 70.0889H115.483L116.244 67.0827H118.037ZM116.063 62.2837H117.874L117.204 65.2899H115.32L116.063 62.2837ZM112.875 62.2837H115.139L114.469 65.2899H112.133L112.875 62.2837ZM115.302 67.0827L114.632 70.0889H112.296L113.056 67.0827H115.302ZM114.252 74.8154H111.915L112.676 71.8093H114.922L114.252 74.8154ZM116.986 74.8154H115.103L115.863 71.8093H117.675L116.986 74.8154Z" fill="#D12A2A"/>
<path d="M45.5405 22.8053C45.0153 22.6242 44.4901 22.4431 43.9649 22.2621C43.9649 21.7007 43.9649 21.1393 43.9649 20.5779L45.5405 22.8053Z" fill="black"/>
<path d="M66.8928 38.0896C66.3495 35.6086 65.8243 33.1276 65.2809 30.6285C62.7636 30.0853 60.2462 29.5601 57.7289 29.0168C58.5439 28.7814 59.3769 28.6184 60.21 28.4373C61.0431 28.2562 61.8762 28.0751 62.7093 27.894C63.5605 27.7129 64.3935 27.5318 65.2628 27.3508C65.8062 24.8517 66.3495 22.3526 66.8928 19.8716C66.9109 19.8716 66.929 19.8716 66.929 19.8716L66.9471 19.8897C67.4904 22.3707 68.0156 24.8335 68.5589 27.3508C71.0763 27.894 73.5937 28.4192 76.1291 28.9625C76.1291 28.9806 76.1291 28.9987 76.1291 28.9987C73.6118 29.542 71.0944 30.0672 68.5589 30.6104C68.0156 33.1095 67.4723 35.5905 66.9471 38.0715C66.929 38.0896 66.9109 38.0896 66.8928 38.0896Z" fill="white"/>
<path d="M76.0929 73.9825C75.5495 71.5015 75.0243 69.0205 74.481 66.5214C71.9637 65.9781 69.4463 65.4529 66.929 64.9096C67.7439 64.6742 68.577 64.5112 69.4101 64.3301C70.2432 64.1491 71.0763 63.968 71.9093 63.7869C72.7605 63.6058 73.5936 63.4247 74.4629 63.2436C75.0062 60.7445 75.5495 58.2454 76.0929 55.7644C76.111 55.7644 76.1291 55.7644 76.1291 55.7644L76.1472 55.7825C76.6905 58.2635 77.2157 60.7264 77.759 63.2436C80.2764 63.7869 82.7937 64.312 85.3292 64.8553C85.3292 64.8734 85.3292 64.8915 85.3292 64.8915C82.8118 65.4348 80.2945 65.96 77.759 66.5033C77.2157 69.0024 76.6724 71.4834 76.1472 73.9643C76.1472 73.9825 76.111 73.9825 76.0929 73.9825Z" fill="white"/>
<path d="M90.1828 59.9658C89.2954 55.8549 88.3899 51.726 87.5025 47.5789C83.319 46.6916 79.1354 45.8042 74.97 44.9169C76.3283 44.5185 77.7228 44.2468 79.0992 43.9571C80.4937 43.6492 81.8701 43.3595 83.2646 43.0697C84.6591 42.78 86.0718 42.4721 87.5025 42.1642C88.408 38.0172 89.2954 33.8701 90.2009 29.7412C90.2372 29.7412 90.2553 29.7412 90.2553 29.7593C90.2734 29.7593 90.2915 29.7774 90.2915 29.7955C91.1789 33.9064 92.0844 38.0172 92.9718 42.1642C97.1554 43.0516 101.339 43.939 105.522 44.8444C105.522 44.8625 105.522 44.8988 105.522 44.9169C101.339 45.8042 97.1554 46.6916 92.9718 47.5971C92.0663 51.7441 91.1789 55.8549 90.2915 59.9839C90.2553 59.9658 90.219 59.9658 90.1828 59.9658Z" fill="white"/>
<path d="M114.034 160.944L8.90307 159.585L8.17865 111.088L25.5466 101.11C25.5466 101.11 26.6876 100.676 27.5569 100.404L28.1364 100.259C28.1364 100.259 27.8466 98.8284 28.7159 98.8284C29.5852 98.8284 29.5852 100.404 29.5852 100.404L31.4506 100.549C31.4506 100.549 31.7404 100.404 32.5916 101.255C33.4609 102.106 33.4609 102.396 34.6018 102.396C35.7428 102.396 36.6121 102.541 36.6121 102.541V99.6796C36.6121 99.6796 36.9019 98.8284 37.7531 98.6836C38.6224 98.5387 38.6224 98.6836 38.6224 98.6836V101.961C38.6224 101.961 38.9121 101.961 40.3429 101.527C41.7736 101.092 42.6429 100.676 43.4941 100.096C44.3634 99.5347 45.6492 98.9552 45.6492 98.9552V95.5325C45.6492 95.5325 45.3595 92.1099 47.3697 92.1099C47.3697 92.1099 49.6697 91.6752 49.6697 95.0979V97.5246C49.6697 97.5246 50.9556 96.8183 51.8249 97.0899C52.6942 97.3797 53.5454 98.6655 53.5454 98.6655C53.5454 98.6655 54.9761 99.245 55.4108 99.8064C55.8454 100.368 56.1352 100.802 56.5517 101.237C56.9864 101.672 59.8478 104.515 59.8478 104.515C59.8478 104.515 62.4376 105.945 63.2888 106.507C64.1581 107.068 66.0235 107.068 66.5849 107.503C67.1645 107.937 68.3054 109.785 69.3196 110.219C70.3338 110.654 71.7645 110.799 72.6157 111.07C73.485 111.36 73.9016 111.65 74.3362 112.066C74.7709 112.501 77.2158 113.497 77.6323 114.783C78.067 116.069 80.6568 115.634 81.2182 115.634C81.7977 115.634 84.5143 116.069 86.108 116.485C87.6836 116.92 89.2592 116.92 90.1285 117.046C90.9978 117.191 92.5735 118.043 93.4247 118.477C94.294 118.912 95.0003 120.053 95.5798 120.324C96.1593 120.614 96.7208 121.465 97.0105 121.9C97.3003 122.334 99.3106 122.751 100.307 124.037C101.321 125.322 102.896 125.612 103.893 126.318C104.889 127.043 106.193 127.604 107.189 128.745C108.203 129.886 109.199 130.592 110.213 131.317C111.209 132.023 111.934 132.602 111.934 132.602C111.934 132.602 112.567 132.023 113.002 132.023" fill="#F16060"/>
<path d="M113.364 141.766C112.35 141.295 108.71 139.393 108.058 139.212C107.406 139.031 105.559 138.85 104.345 138.85C103.132 138.85 102.498 138.85 101.556 138.289C100.633 137.727 99.3286 136.333 98.7672 135.609C98.2058 134.866 97.9341 134.305 97.753 134.033C97.5719 133.761 97.101 133.109 96.2679 132.168C95.4349 131.244 95.0545 131.606 94.7829 131.335C94.5112 131.063 93.2073 130.864 92.3742 130.683C91.5411 130.502 91.0702 130.121 90.6175 129.469C90.1466 128.818 90.0561 128.256 89.0419 127.423C88.0277 126.59 86.4521 126.59 85.8906 125.938C85.3292 125.286 85.0576 125.467 84.4056 125.105C83.7536 124.743 80.4213 123.059 79.5882 122.606C78.7551 122.135 78.0126 121.864 76.8897 120.849C75.785 119.835 75.4952 120.197 74.481 120.197C73.4669 120.197 70.6778 120.197 69.4644 120.197C68.251 120.197 66.4943 120.288 64.5384 120.288C62.5825 120.288 59.9927 119.636 58.8879 119.274C57.7832 118.912 56.8414 117.698 55.9178 117.228C54.9942 116.757 54.4327 116.304 53.6902 115.652C52.9477 115 53.2193 115.181 52.5674 114.076C51.9154 112.972 49.9776 112.41 49.9776 112.41C49.9776 112.41 46.3555 109.622 45.1602 109.259C43.9468 108.897 43.1137 108.988 42.0995 108.336C41.0853 107.684 39.9625 108.336 39.3105 108.336C38.6585 108.336 37.1735 108.155 35.5073 108.155C33.8411 108.155 31.7041 107.974 30.871 107.322C30.0379 106.67 28.1726 106.308 26.0536 105.565C23.9166 104.823 21.8882 105.004 19.7512 105.656C17.6142 106.308 16.5094 106.308 14.9338 106.308C13.3582 106.308 13.0684 106.181 12.0542 106.271C11.0401 106.362 10.8408 106.452 10.4605 106.271C10.0983 106.09 8.90302 106.706 7.88883 106.706C6.87464 106.706 7.20063 107.648 5.53447 107.467L7.03764 128.781L4.2124 172.697H114.378" fill="#E54546"/>
<path d="M6.36763 137.619L4.7558 161.994L34.8735 163.117C34.8735 163.117 35.8877 146.148 34.8735 145.587C33.8593 145.026 30.2372 143.541 28.6616 142.798C27.086 142.056 24.8584 142.436 22.8119 141.585C20.7655 140.752 18.6284 138.796 17.4331 137.963C16.2197 137.13 14.3725 136.098 12.978 134.993C11.5834 133.888 11.2212 134.25 10.0984 133.78C8.99365 133.309 7.59914 132.403 6.76606 131.48" fill="#CA3636"/>
<path d="M114.777 186.822L3.28882 187.655L5.53452 151.635L7.12824 150.386C8.70385 149.462 10.5692 148.955 8.9574 149.553C7.96132 149.915 12.0724 147.868 13.811 147.597C15.6221 147.325 20.856 145.098 23.2647 145.098C25.6734 145.098 26.3253 144.536 28.6435 144.174C30.9616 143.794 34.2034 143.251 37.083 143.341C39.9625 143.432 44.0374 144.265 45.8122 145.007C47.5689 145.75 49.2532 145.84 50.7201 146.22C52.2052 146.583 54.8856 146.782 56.5698 146.691C58.236 146.601 60.0108 146.782 61.8581 146.51C63.7054 146.239 66.8747 145.677 68.4503 145.949C70.0259 146.22 75.0425 145.858 75.785 145.677C76.5276 145.496 79.9686 144.844 81.0733 145.025C82.178 145.206 82.6489 144.844 83.0292 145.206C83.3914 145.569 86.6513 144.735 87.7561 145.387C88.8608 146.039 92.0301 147.144 92.7727 147.705C93.5152 148.267 94.6199 149.009 95.9239 148.81C97.2278 148.629 102.607 147.796 104.273 147.796C105.939 147.796 111.481 146.22 113.618 146.22" fill="#AD2224"/>
<path d="M115.067 196.474L76.1835 200.368H40.8499L2.74548 196.311L3.36124 186.568L6.4038 187.401C10.0259 187.492 11.9637 188.144 14.2819 187.22C16.6 186.297 24.1158 185.083 25.4198 184.25C26.7238 183.417 33.7687 180.538 34.2396 180.357C34.7105 180.176 40.2704 178.401 41.5743 177.767C42.8783 177.115 45.939 176.934 48.0579 176.554C50.1949 176.174 51.7705 176.174 56.4068 177.025C61.0431 177.858 66.2408 177.677 67.9975 177.948C69.7542 178.22 70.696 177.025 73.5574 177.948C76.437 178.872 80.3307 179.995 83.3009 179.904C86.271 179.814 88.5891 180.176 89.8025 181.009C91.0159 181.842 93.8774 181.48 96.6664 181.751C99.4554 182.041 99.1656 183.707 103.621 182.403C108.076 181.099 112.785 179.451 114.541 178.981" fill="#931A1D"/>
</g>
<defs>
<clipPath id="clip0">
<rect width="120" height="200" fill="white" transform="translate(0.825745 0.367676)"/>
</clipPath>
</defs>
</svg>
