<svg width="57" height="47" viewBox="0 0 57 47" fill="none" xmlns="http://www.w3.org/2000/svg">
<path d="M56.8468 5.80587C54.7671 6.73017 52.543 7.36565 50.1744 7.62561C52.5719 6.18138 54.4205 3.92838 55.2871 1.21323C53.0341 2.54192 50.5499 3.49511 47.9214 4.01504C45.8128 1.76204 42.7799 0.34668 39.4582 0.34668C33.0458 0.34668 27.8467 5.54592 27.8467 11.9583C27.8467 12.8537 27.9622 13.7491 28.1355 14.6157C18.488 14.1246 9.93828 9.50311 4.21913 2.48416C3.20817 4.18835 2.65925 6.18135 2.65925 8.31881C2.65925 12.3338 4.71017 15.8866 7.82971 17.9663C5.92332 17.9085 4.13246 17.3886 2.57269 16.5221C2.57269 16.5798 2.57269 16.6087 2.57269 16.6665C2.57269 22.299 6.55868 26.9783 11.8734 28.047C10.8914 28.307 9.88041 28.4514 8.81168 28.4514C8.06068 28.4514 7.33854 28.3647 6.61643 28.2492C8.08954 32.8707 12.3933 36.2213 17.4481 36.308C13.4621 39.4275 8.46507 41.2761 3.03476 41.2761C2.11046 41.2761 1.18609 41.2184 0.26178 41.1028C5.40324 44.3957 11.498 46.3309 18.0548 46.3309C39.4005 46.3309 51.0699 28.6536 51.0699 13.3159C51.0699 12.8248 51.0698 12.3049 51.0409 11.8139C53.3228 10.1674 55.287 8.14552 56.8468 5.80587Z" fill="white"/>
</svg>
